binfmt-support_2.1.6-2_armhf.deb
clang-3.8_1%3a3.8.1-24+rpi1_armhf.deb
clang_1%3a3.8-36_armhf.deb
debootstrap_1.0.89_all.deb
dvtm_0.15-2_armhf.deb
elvis-common_2.2.0-12_all.deb
elvis_2.2.0-12_armhf.deb
fltk1.3-doc_1.3.4-4_all.deb
fluid_1.3.4-4_armhf.deb
libapr1_1.5.2-5_armhf.deb
libaprutil1_1.5.4-3_armhf.deb
libaudio2_1.9.4-5_armhf.deb
libclang-common-3.8-dev_1%3a3.8.1-24+rpi1_armhf.deb
libclang1-3.8_1%3a3.8.1-24+rpi1_armhf.deb
libepoxy0_1.3.1-2_armhf.deb
libffi-dev_3.2.1-6_armhf.deb
libfltk-cairo1.3_1.3.4-4_armhf.deb
libfltk-forms1.3_1.3.4-4_armhf.deb
libfltk-gl1.3_1.3.4-4_armhf.deb
libfltk-images1.3_1.3.4-4_armhf.deb
libfltk1.3-dev_1.3.4-4_armhf.deb
libfltk1.3_1.3.4-4_armhf.deb
libfontenc1_1%3a1.1.3-1_armhf.deb
libgc1c2_1%3a7.4.2-8_armhf.deb
libgmime-2.6-0_2.6.22+dfsg2-1_armhf.deb
libgpgme11_1.8.0-3_armhf.deb
libllvm3.8_1%3a3.8.1-24+rpi1_armhf.deb
libncurses5-dev_6.0+20161126-1+deb9u2_armhf.deb
libnotmuch4_0.23.7-3_armhf.deb
libobjc-6-dev_6.3.0-18+rpi1+deb9u1_armhf.deb
libobjc4_6.3.0-18+rpi1+deb9u1_armhf.deb
libpciaccess0_0.13.4-1_armhf.deb
libportaudio2_19.6.0-1_armhf.deb
libreadline5_5.2+dfsg-3_armhf.deb
libserf-1-1_1.3.9-3+deb9u1_armhf.deb
libsvn1_1.9.5-1+deb9u6_armhf.deb
libtinfo-dev_6.0+20161126-1+deb9u2_armhf.deb
libtokyocabinet9_1.4.48-11_armhf.deb
libutempter0_1.1.6-3_armhf.deb
libx11-6_2%3a1.6.4-3+deb9u4_armhf.deb
libx11-dev_2%3a1.6.4-3+deb9u4_armhf.deb
libxaw7_2%3a1.0.13-1_armhf.deb
libxcomposite1_1%3a0.4.4-2_armhf.deb
libxfont1_1%3a1.5.2-4_armhf.deb
libxfont2_1%3a2.0.1-3+deb9u1_armhf.deb
libxft2_2.3.2-1_armhf.deb
libxkbfile1_1%3a1.0.9-2_armhf.deb
libxmu6_2%3a1.1.2-2_armhf.deb
libxt-dev_1%3a1.1.5-1_armhf.deb
libxt6_1%3a1.1.5-1_armhf.deb
links2_2.14-2_armhf.deb
links_2.14-2_armhf.deb
list.md5
llvm-3.8-dev_1%3a3.8.1-24+rpi1_armhf.deb
llvm-3.8-runtime_1%3a3.8.1-24+rpi1_armhf.deb
llvm-3.8_1%3a3.8.1-24+rpi1_armhf.deb
lzma_9.22-2_armhf.deb
mpg123_1.23.8-1_armhf.deb
mupdf_1.9a+ds1-4+deb9u7_armhf.deb
mutt_1.7.2-1+deb9u5_armhf.deb
nasm_2.12.01-1_armhf.deb
netcat_1.10-41_all.deb
ntpdate_1%3a4.2.8p10+dfsg-3+deb9u2_armhf.deb
openssh-client_1%3a7.4p1-10+deb9u7_armhf.deb
openssh-server_1%3a7.4p1-10+deb9u7_armhf.deb
openssh-sftp-server_1%3a7.4p1-10+deb9u7_armhf.deb
packages.lst
screen_4.5.0-6+deb9u1_armhf.deb
ssh_1%3a7.4p1-10+deb9u7_all.deb
sshfs_2.8-1_armhf.deb
subversion_1.9.5-1+deb9u6_armhf.deb
tmux_2.3-4_armhf.deb
unzip_6.0-21+deb9u2_armhf.deb
x11-utils_7.7+3_armhf.deb
x11-xkb-utils_7.7+3_armhf.deb
xbitmaps_1.1.1-2_all.deb
xclip_0.12+svn84-4_armhf.deb
xfonts-base_1%3a1.0.4+nmu1_all.deb
xfonts-encodings_1%3a1.0.4-2_all.deb
xfonts-utils_1%3a7.7+4_armhf.deb
xfsprogs_4.9.0+nmu1_armhf.deb
xinit_1.3.4-3_armhf.deb
xinput_1.6.2-1_armhf.deb
xserver-common_2%3a1.19.2-1+rpt1+deb9u2_all.deb
xserver-xorg-core_2%3a1.19.2-1+rpt1+deb9u2_armhf.deb
xserver-xorg-input-all_1%3a7.7+19_armhf.deb
xserver-xorg-input-libinput_0.23.0-2_armhf.deb
xserver-xorg-input-wacom_0.34.0-1_armhf.deb
xserver-xorg-legacy_2%3a1.19.2-1+rpt1+deb9u2_armhf.deb
xserver-xorg-video-all_1%3a7.7+19_armhf.deb
xserver-xorg-video-amdgpu_1.2.0-1+b1_armhf.deb
xserver-xorg-video-ati_1%3a7.8.0-1+b1_armhf.deb
xserver-xorg-video-fbdev_1%3a0.4.4-1+rvt+b1_armhf.deb
xserver-xorg-video-nouveau_1%3a1.0.13-3_armhf.deb
xserver-xorg-video-radeon_1%3a7.8.0-1+b1_armhf.deb
xserver-xorg-video-vesa_1%3a2.3.4-1+b3_armhf.deb
xserver-xorg_1%3a7.7+19_armhf.deb
xterm_327-2+deb9u2_armhf.deb
